date_evt;heure_evt;x
22/07/2012;06:12;25
23/07/2012;07:35;30
24/07/2012;05:05;2
24/07/2012;20:12;5
24/07/2012;12:52;3
24/07/2012;12:07;75
25/07/2012;15:16;1
25/07/2012;19:12;25
26/07/2012;13:06;50
27/07/2012;02:30;42
28/07/2012;08:09;23
29/07/2012;06:03;2
30/07/2012;16:23;6
31/07/2012;12:32;74
31/07/2012;17:56;41
31/07/2012;14:58;32
01/08/2012;16:59;52
02/08/2012;13:36;12
03/08/2012;21:23;96
03/08/2012;20:54;95
03/08/2012;10:54;74
03/08/2012;11:36;70
03/08/2012;07:51;12
04/08/2012;16:17;85
07/08/2012;07:25;23
07/08/2012;18:23;5
09/08/2012;19:45;65
10/08/2012;11:39;97
10/08/2012;12:45;2
10/08/2012;12:32;0
11/08/2012;16:23;45
11/08/2012;16:59;74
13/08/2012;13:36;5
14/08/2012;21:23;69
14/08/2012;11:37;41
14/08/2012;16:23;45
15/08/2012;12:32;4
15/08/2012;17:56;65
16/08/2012;14:58;45
16/08/2012;16:59;24
16/08/2012;19:12;57
16/08/2012;12:32;5
19/08/2012;11:37;42
20/08/2012;07:35;12
20/08/2012;09:43;25
21/08/2012;07:25;6
22/08/2012;08:26;9
23/08/2012;19:32;85
24/08/2012;12:45;75
24/08/2012;12:32;10
24/08/2012;16:23;52
25/08/2012;11:47;45
25/08/2012;12:45;89
26/08/2012;14:32;12
26/08/2012;16:44;56
27/08/2012;12:36;21
27/08/2012;12:37;6
28/08/2012;05:56;31
28/08/2012;07:25;5
29/08/2012;18:23;63
30/08/2012;10:37;52
